11장_최종예제
…
## Warning in max(income, na.rm = TRUE): max에 전달되는 인자들 중 누락이 있어 -Inf
## 를 반환합니다

## Warning in max(income, na.rm = TRUE): max에 전달되는 인자들 중 누락이 있어 -Inf
## 를 반환합니다

## Warning in max(income, na.rm = TRUE): max에 전달되는 인자들 중 누락이 있어 -Inf
## 를 반환합니다

## Warning in max(income, na.rm = TRUE): max에 전달되는 인자들 중 누락이 있어 -Inf
## 를 반환합니다

## `summarise()` has grouped output by 'age'. You can override using the `.groups` argument.

## # A tibble: 199 x 8
## # Groups:   age [102]
##      age gender  mean    sd median   min   max   cnt
##    <dbl> <fct>  <dbl> <dbl>  <dbl> <dbl> <dbl> <int>
##  1     2 male     NaN    NA     NA   Inf  -Inf    12
##  2     2 female   NaN    NA     NA   Inf  -Inf    19
##  3     3 male     NaN    NA     NA   Inf  -Inf    60
##  4     3 female   NaN    NA     NA   Inf  -Inf    57
##  5     4 male     NaN    NA     NA   Inf  -Inf    58
##  6     4 female   NaN    NA     NA   Inf  -Inf    60
##  7     5 male     NaN    NA     NA   Inf  -Inf    73
##  8     5 female   NaN    NA     NA   Inf  -Inf    79
##  9     6 male     NaN    NA     NA   Inf  -Inf    79
## 10     6 female   NaN    NA     NA   Inf  -Inf    70
## # ... with 189 more rows
…
welfare <- left_join(welfare, job_xlsx, by = "code_job") # left join은 데이터프레임들끼리 가능

welfare %>% group_by(job) %>% 
  summarise(income_mean = mean(income, na.rm = T),
            income_sd = sd(income, na.rm = T),
            income_cnt = n()) %>% 
  arrange(income_mean)

## # A tibble: 146 x 4
##    job                          income_mean income_sd income_cnt
##    <chr>                              <dbl>     <dbl>      <int>
##  1 가사 및 육아 도우미                 80.2      43.4        125
##  2 임업관련 종사자                     83.3      NA            2
##  3 기타 서비스관련 단순 종사원         88.2      73.7        141
##  4 청소원 및 환경 미화원               88.8      82.1        325
##  5 약사 및 한약사                      89        NA            4
##  6 작물재배 종사자                     92        87.1       1320
##  7 농립어업관련 단순 종사원           102.       61.6         45
##  8 의료 복지 관련 서비스 종사자       104.       55.8        124
##  9 음식관련 단순 종사원               108.       55.5        122
## 10 판매관련 단순 종사원               117.       51.7         73
## # ... with 136 more rows
…
